/Users/leocanalejo/Documents/projects-leo/reservations/src/main/java/com/upgrade/reservations/controller/ReservationAvailabilityController.java
/Users/leocanalejo/Documents/projects-leo/reservations/src/main/java/com/upgrade/reservations/service/IReservationService.java
/Users/leocanalejo/Documents/projects-leo/reservations/src/main/java/com/upgrade/reservations/exception/NotFoundException.java
/Users/leocanalejo/Documents/projects-leo/reservations/src/main/java/com/upgrade/reservations/exception/config/CustomErrorResponse.java
/Users/leocanalejo/Documents/projects-leo/reservations/src/main/java/com/upgrade/reservations/repository/ReservationDayRepository.java
/Users/leocanalejo/Documents/projects-leo/reservations/src/main/java/com/upgrade/reservations/exception/BadRequestException.java
/Users/leocanalejo/Documents/projects-leo/reservations/src/main/java/com/upgrade/reservations/repository/ReservationRepository.java
/Users/leocanalejo/Documents/projects-leo/reservations/src/main/java/com/upgrade/reservations/service/IReservationAvailabilityService.java
/Users/leocanalejo/Documents/projects-leo/reservations/src/main/java/com/upgrade/reservations/aspects/annotation/LogExecutionTime.java
/Users/leocanalejo/Documents/projects-leo/reservations/src/main/java/com/upgrade/reservations/controller/ReservationController.java
/Users/leocanalejo/Documents/projects-leo/reservations/src/main/java/com/upgrade/reservations/aspects/LogExecutionTimeAspect.java
/Users/leocanalejo/Documents/projects-leo/reservations/src/main/java/com/upgrade/reservations/model/Reservation.java
/Users/leocanalejo/Documents/projects-leo/reservations/src/main/java/com/upgrade/reservations/exception/config/CustomGlobalExceptionHandler.java
/Users/leocanalejo/Documents/projects-leo/reservations/src/main/java/com/upgrade/reservations/service/impl/ReservationService.java
/Users/leocanalejo/Documents/projects-leo/reservations/src/main/java/com/upgrade/reservations/exception/InternalServerErrorException.java
/Users/leocanalejo/Documents/projects-leo/reservations/src/main/java/com/upgrade/reservations/ReservationsApplication.java
/Users/leocanalejo/Documents/projects-leo/reservations/src/main/java/com/upgrade/reservations/service/impl/ReservationAvailabilityService.java
/Users/leocanalejo/Documents/projects-leo/reservations/src/main/java/com/upgrade/reservations/model/ReservationDay.java
/Users/leocanalejo/Documents/projects-leo/reservations/src/main/java/com/upgrade/reservations/logger/StaticLogger.java
